\babel@toc {spanish}{}
\contentsline {chapter}{\numberline {1}Introducci\IeC {\'o}n}{1}{chapter.1}
\contentsline {section}{\numberline {1.1}Dominio de Aplicaci\IeC {\'o}n}{2}{section.1.1}
\contentsline {chapter}{\numberline {2}Conceptos Previos}{3}{chapter.2}
\contentsline {section}{\numberline {2.1}Coordenadas Geogr\IeC {\'a}ficas}{4}{section.2.1}
\contentsline {chapter}{\numberline {3}Plan de Proyecto}{5}{chapter.3}
\contentsline {section}{\numberline {3.1}An\IeC {\'a}lisis de Viabilidad}{6}{section.3.1}
\contentsline {chapter}{\numberline {4}Tecnolog\IeC {\'\i }a}{7}{chapter.4}
\contentsline {section}{\numberline {4.1}Base Tecnol\IeC {\'o}gica}{8}{section.4.1}
\contentsline {chapter}{\numberline {5}Dise\IeC {\~n}o}{9}{chapter.5}
\contentsline {section}{\numberline {5.1}Ciclo de vida}{10}{section.5.1}
\contentsline {chapter}{\numberline {6}Implementaci\IeC {\'o}n}{11}{chapter.6}
\contentsline {section}{\numberline {6.1}Organizaci\IeC {\'o}n del c\IeC {\'o}digo fuente}{12}{section.6.1}
\contentsline {chapter}{\numberline {7}Conclusiones}{13}{chapter.7}
\contentsline {section}{\numberline {7.1}An\IeC {\'a}lisis Econ\IeC {\'o}mico}{14}{section.7.1}
\contentsline {chapter}{\numberline {A}Ap\IeC {\'e}ndice}{15}{appendix.Alph1}
\contentsline {section}{\numberline {A.1}PhotoPlace}{15}{section.Alph1.1}
